<?xml version="1.0" encoding="iso-8859-1"?>
<!-- Generator: Adobe Illustrator 19.0.0, SVG Export Plug-In . SVG Version: 6.00 Build 0)  -->
<svg version="1.1" id="Layer_1" xmlns="http://www.w3.org/2000/svg" xmlns:xlink="http://www.w3.org/1999/xlink" x="0px" y="0px"
	 viewBox="0 0 512 512" style="enable-background:new 0 0 512 512;" xml:space="preserve">
<g transform="translate(1 1)">
	<g>
		<g>
			<path fill="#ffffff" d="M149.069,193.207c-34.428,0-61.793,27.365-61.793,61.793c0,34.428,27.365,61.793,61.793,61.793
				c34.428,0,61.793-27.366,61.793-61.793C210.862,220.572,183.497,193.207,149.069,193.207z M149.069,299.138
				c-24.717,0-44.138-19.421-44.138-44.138s19.421-44.138,44.138-44.138s44.138,19.421,44.138,44.138
				S173.786,299.138,149.069,299.138z"/>
			<path fill="#ffffff" d="M255,290.31c-34.428,0-61.793,27.365-61.793,61.793s27.366,61.793,61.793,61.793c34.428,0,61.793-27.365,61.793-61.793
				S289.428,290.31,255,290.31z M255,396.241c-24.717,0-44.138-19.421-44.138-44.138s19.421-44.138,44.138-44.138
				s44.138,19.421,44.138,44.138S279.717,396.241,255,396.241z"/>
			<path fill="#ffffff" d="M360.931,387.414c-34.428,0-61.793,27.365-61.793,61.793S326.503,511,360.931,511c34.428,0,61.793-27.365,61.793-61.793
				S395.359,387.414,360.931,387.414z M360.931,493.345c-24.717,0-44.138-19.421-44.138-44.138s19.421-44.138,44.138-44.138
				s44.138,19.421,44.138,44.138S385.648,493.345,360.931,493.345z"/>
			<path fill="#ffffff" d="M255,219.69c34.428,0,61.793-27.365,61.793-61.793c0-34.428-27.365-61.793-61.793-61.793
				c-34.428,0-61.793,27.366-61.793,61.793C193.207,192.324,220.572,219.69,255,219.69z M255,113.759
				c24.717,0,44.138,19.421,44.138,44.138S279.717,202.034,255,202.034s-44.138-19.421-44.138-44.138S230.283,113.759,255,113.759z"
				/>
			<path fill="#ffffff" d="M360.931,122.586c34.428,0,61.793-27.365,61.793-61.793C422.724,26.366,395.359-1,360.931-1
				c-34.428,0-61.793,27.366-61.793,61.793C299.138,95.221,326.503,122.586,360.931,122.586z M360.931,16.655
				c24.717,0,44.138,19.421,44.138,44.138c0,24.717-19.421,44.138-44.138,44.138s-44.138-19.421-44.138-44.138
				C316.793,36.076,336.214,16.655,360.931,16.655z"/>
		</g>
	</g>
</g>
<g>
</g>
<g>
</g>
<g>
</g>
<g>
</g>
<g>
</g>
<g>
</g>
<g>
</g>
<g>
</g>
<g>
</g>
<g>
</g>
<g>
</g>
<g>
</g>
<g>
</g>
<g>
</g>
<g>
</g>
</svg>
